Cyclistic bike share analysis
…
Even though casual riders on average spend more time riding docked bikes on any given day of the week, docked bicycles are not used as frequently compared to classic and electric bicycles.

## # A tibble: 5 x 4
##   rideable_type member_casual      n   prop
##   <chr>         <chr>          <int>  <dbl>
## 1 classic_bike  casual        656480 0.333 
## 2 classic_bike  member        782532 0.397 
## 3 docked_bike   casual        154390 0.0783
## 4 electric_bike casual        203252 0.103 
## 5 electric_bike member        176162 0.0893

Casual riders use classic bicycles 4.3 more times than docked bicycles. What time during the day do we see the most riders?

## # A tibble: 48 x 3
## # Groups:   member_casual [2]
##    member_casual  hour      n
##    <chr>         <int>  <int>
##  1 member           17 104359
##  2 casual           17  95257
##  3 member           18  90221
##  4 casual           18  89295
##  5 casual           16  78423
##  6 member           16  77755
##  7 casual           19  73276
##  8 casual           15  70212
##  9 member           19  68617
## 10 casual           14  67790
## # ... with 38 more rows
…
The afternoon is the peak time the most riders come on any given day of the week. Casual drivers come most on Saturday and Sunday. Popular Start Stations for Casual riders are:

## `summarise()` has grouped output by 'member_casual'. You can override using the `.groups` argument.

## Adding missing grouping variables: `member_casual`

## # A tibble: 30 x 3
## # Groups:   member_casual [1]
##    member_casual start_station_name                 number_of_ride
##    <chr>         <chr>                                       <int>
##  1 casual        Streeter Dr & Grand Ave                     36421
##  2 casual        Michigan Ave & Oak St                       16113
##  3 casual        Millennium Park                             15963
##  4 casual        Theater on the Lake                         11798
##  5 casual        Shedd Aquarium                              11218
##  6 casual        Wells St & Concord Ln                        9804
##  7 casual        Lake Shore Dr & North Blvd                   9546
##  8 casual        Lake Shore Dr & Monroe St                    9383
##  9 casual        Clark St & Lincoln Ave                       8697
## 10 casual        DuSable Lake Shore Dr & North Blvd           8273
## # ... with 20 more rows

Popular Start Stations for Member riders:

## `summarise()` has grouped output by 'member_casual'. You can override using the `.groups` argument.

## Adding missing grouping variables: `member_casual`

## # A tibble: 30 x 3
## # Groups:   member_casual [1]
##    member_casual start_station_name       number_of_ride
##    <chr>         <chr>                             <int>
##  1 member        Wells St & Concord Ln              9337
##  2 member        Clark St & Elm St                  9097
##  3 member        Kingsbury St & Kinzie St           8197
##  4 member        Streeter Dr & Grand Ave            7864
##  5 member        Wells St & Elm St                  7858
##  6 member        Theater on the Lake                7465
##  7 member        Clark St & Lincoln Ave             7044
##  8 member        Michigan Ave & Oak St              6782
##  9 member        Broadway & Barry Ave               6739
## 10 member        Wells St & Huron St                6727
## # ... with 20 more rows
…
